<svg id="_003-telephone" data-name="003-telephone" xmlns="http://www.w3.org/2000/svg" width="27.722" height="27.723" viewBox="0 0 27.722 27.723">
  <g id="Group_366" data-name="Group 366" transform="translate(0 0)">
    <path id="Path_641" data-name="Path 641" d="M27.02,20.447,23.573,17a2.44,2.44,0,0,0-3.446,0L18.56,18.568a1.848,1.848,0,0,1-2.611,0l-6.79-6.8a1.845,1.845,0,0,1,0-2.611l1.567-1.567a2.435,2.435,0,0,0,0-3.447L7.28.713a2.439,2.439,0,0,0-3.444,0L2.58,1.955a8.8,8.8,0,0,0,0,12.428L13.339,25.147a8.783,8.783,0,0,0,12.428,0l1.253-1.253A2.44,2.44,0,0,0,27.02,20.447ZM4.982,1.862a.814.814,0,0,1,1.15,0L9.578,5.3a.812.812,0,0,1,0,1.149L9,7.02,4.411,2.428ZM14.488,24,3.729,13.234A7.142,7.142,0,0,1,3.281,3.6L7.86,8.175a3.467,3.467,0,0,0,.151,4.746l6.79,6.8h0a3.467,3.467,0,0,0,4.746.151l4.579,4.579A7.128,7.128,0,0,1,14.488,24Zm11.383-1.253-.574.574-4.6-4.6.574-.574a.813.813,0,0,1,1.149,0L25.871,21.6A.813.813,0,0,1,25.871,22.745Z" transform="translate(-0.011 0)" fill="#fefefe"/>
  </g>
</svg>
